{
  "project_info": {
    "project_number": "800827754198",
    "firebase_url": "https://kotshena-a66a8.firebaseio.com",
    "project_id": "kotshena-a66a8",
    "storage_bucket": "kotshena-a66a8.appspot.com"
  },
  "client": [
    {
      "client_info": {
        "mobilesdk_app_id": "1:800827754198:android:5686dfb55ef196b1",
        "android_client_info": {
          "package_name": "com.msjnew.kotnew"
        }
      },
      "oauth_client": [
        {
          "client_id": "800827754198-3cec4ii8l1jim64rv7idd8stpsrs93mf.apps.googleusercontent.com",
          "client_type": 3
        }
      ],
      "api_key": [
        {
          "current_key": "AIzaSyCuxYIGRnRJPeW61iqJRWKb7cvucGGh98I"
        }
      ],
      "services": {
        "analytics_service": {
          "status": 1
        },
        "appinvite_service": {
          "status": 1,
          "other_platform_oauth_client": []
        },
        "ads_service": {
          "status": 2
        }
      }
    }
  ],
  "configuration_version": "1"
}